cvs-fast-export: vendor branch detected.
cvs-fast-export: no commitids before 2003-06-03T04:33:13Z.
t9602 branch vendorbranch: vendorbranch unexpectedly missing.
t9602 branch B_FROM_INITIALS: B_FROM_INITIALS unexpectedly missing.
